{
    "name": "user",
    "plural": "users",
    "base": "User",
    "idInjection": true,
    "properties": {
        "dtCrt": {
            "type": "date"
        },
        "dtUpd": {
            "type": "date",
            "required": true
        }
    },
    "validations": [],
    "relations": {
        "accessToken": {
            "type": "belongsTo",
            "model": "user",
            "foreignKey": "userId"
        },
        "role": {
            "type": "hasOne",
            "model": "role"
        }
    },
    "acls": [],
    "methods": []
}
