{
  "restApiRoot": "/api",
  "host": "localhost",
  "port": 3000,
  "remoting": {
    "context": {
      "enableHttpContext": false
    },
    "rest": {
      "normalizeHttpPath": false,
      "xml": false
    },
    "json": {
      "strict": false,
      "limit": "100kb"
    },
    "urlencoded": {
      "extended": true,
      "limit": "100kb"
    },
    "cors": false,
    "errorHandler": {
      "disableStackTrace": false
    }
  },
  "legacyExplorer": false,
  "routes": {
    "photosCtrl": {
      "create": {
        "method": "post",
        "path": "/photos"
      },
      "getAll": [
        "get",
        "/photos"
      ],
      "getOne": [
        "get",
        "/photos/:id"
      ],
      "edit": [
        "get",
        "/photos/:id/edit"
      ],
      "update": [
        "put",
        "/photos/:id"
      ],
      "delete": [
        "delete",
        "/photos/:id"
      ]
    }
  }
}
