{
    "mongodb": {
        "name": "mongodb_prod",
        "connector": "mongodb",
        "host": "",
        "port": 27017,
        "database": "",
        "username": "",
        "password": "",
        "debug": false
    },
    "MailDs": {
        "name": "MailDs",
        "connector": "mail"
    }
}
